EESchema Schematic File Version 2
LIBS:power
LIBS:device
LIBS:transistors
LIBS:conn
LIBS:linear
LIBS:regul
LIBS:74xx
LIBS:cmos4000
LIBS:adc-dac
LIBS:memory
LIBS:xilinx
LIBS:microcontrollers
LIBS:dsp
LIBS:microchip
LIBS:analog_switches
LIBS:motorola
LIBS:texas
LIBS:intel
LIBS:audio
LIBS:interface
LIBS:digital-audio
LIBS:philips
LIBS:display
LIBS:cypress
LIBS:siliconi
LIBS:opto
LIBS:atmel
LIBS:contrib
LIBS:valves
LIBS:analog_devices
LIBS:ad8475
LIBS:schematic-cache
EELAYER 25 0
EELAYER END
$Descr A4 11693 8268
encoding utf-8
Sheet 1 1
Title "AD8475 [-10,+10] to [+0.5,+4.5]"
Date "2017-06-28"
Rev "v0"
Comp "HSR Wind Turibine"
Comment1 ""
Comment2 ""
Comment3 ""
Comment4 ""
$EndDescr
$Comp
L AD8475 U1
U 1 1 5953990E
P 4850 3700
F 0 "U1" H 5050 3950 60  0000 L CNN
F 1 "AD8475" H 5050 3850 60  0000 L CNN
F 2 "Housings_SSOP:MSOP-10_3x3mm_Pitch0.5mm" H 4850 3700 60  0001 C CNN
F 3 "" H 4850 3700 60  0000 C CNN
	1    4850 3700
	1    0    0    -1  
$EndComp
NoConn ~ 4850 3700
NoConn ~ 6450 3700
$Comp
L GND #PWR01
U 1 1 59539CC7
P 4850 3800
F 0 "#PWR01" H 4850 3550 50  0001 C CNN
F 1 "GND" H 4850 3650 50  0000 C CNN
F 2 "" H 4850 3800 50  0000 C CNN
F 3 "" H 4850 3800 50  0000 C CNN
	1    4850 3800
	0    1    1    0   
$EndComp
$Comp
L GND #PWR02
U 1 1 59539CE1
P 6450 3900
F 0 "#PWR02" H 6450 3650 50  0001 C CNN
F 1 "GND" H 6450 3750 50  0000 C CNN
F 2 "" H 6450 3900 50  0000 C CNN
F 3 "" H 6450 3900 50  0000 C CNN
	1    6450 3900
	0    -1   -1   0   
$EndComp
Wire Wire Line
	4600 3900 4850 3900
Wire Wire Line
	4600 3900 4600 3750
$Comp
L GND #PWR03
U 1 1 59539D9B
P 3750 3550
F 0 "#PWR03" H 3750 3300 50  0001 C CNN
F 1 "GND" H 3750 3400 50  0000 C CNN
F 2 "" H 3750 3550 50  0000 C CNN
F 3 "" H 3750 3550 50  0000 C CNN
	1    3750 3550
	1    0    0    -1  
$EndComp
$Comp
L PWR_FLAG #FLG04
U 1 1 59539DB1
P 3750 3550
F 0 "#FLG04" H 3750 3645 50  0001 C CNN
F 1 "PWR_FLAG" H 3750 3730 50  0000 C CNN
F 2 "" H 3750 3550 50  0000 C CNN
F 3 "" H 3750 3550 50  0000 C CNN
	1    3750 3550
	1    0    0    -1  
$EndComp
$Comp
L PWR_FLAG #FLG05
U 1 1 59539DE4
P 4150 3550
F 0 "#FLG05" H 4150 3645 50  0001 C CNN
F 1 "PWR_FLAG" H 4150 3730 50  0000 C CNN
F 2 "" H 4150 3550 50  0000 C CNN
F 3 "" H 4150 3550 50  0000 C CNN
	1    4150 3550
	1    0    0    -1  
$EndComp
Wire Wire Line
	4750 4100 4850 4100
Wire Wire Line
	6450 4100 6650 4100
Wire Wire Line
	4850 4000 4750 4000
Text Label 4750 4000 2    60   ~ 0
COMM
Text Label 4750 4100 2    60   ~ 0
+OUT
Text Label 6650 4100 2    60   ~ 0
-OUT
Text Notes 4500 3100 0    60   ~ 0
Bipolar signal to unipolar (x0.4 amplification)
Wire Wire Line
	6450 3800 6650 3800
$Comp
L GND #PWR06
U 1 1 5953ABF3
P 4600 4600
F 0 "#PWR06" H 4600 4350 50  0001 C CNN
F 1 "GND" H 4600 4450 50  0000 C CNN
F 2 "" H 4600 4600 50  0000 C CNN
F 3 "" H 4600 4600 50  0000 C CNN
	1    4600 4600
	1    0    0    -1  
$EndComp
$Comp
L +5V #PWR07
U 1 1 5953AC2F
P 4150 3550
F 0 "#PWR07" H 4150 3400 50  0001 C CNN
F 1 "+5V" H 4150 3690 50  0000 C CNN
F 2 "" H 4150 3550 50  0000 C CNN
F 3 "" H 4150 3550 50  0000 C CNN
	1    4150 3550
	-1   0    0    1   
$EndComp
$Comp
L +5V #PWR08
U 1 1 5953AC60
P 4600 3750
F 0 "#PWR08" H 4600 3600 50  0001 C CNN
F 1 "+5V" H 4600 3890 50  0000 C CNN
F 2 "" H 4600 3750 50  0000 C CNN
F 3 "" H 4600 3750 50  0000 C CNN
	1    4600 3750
	1    0    0    -1  
$EndComp
$Comp
L +5V #PWR09
U 1 1 5953AC7D
P 4600 4400
F 0 "#PWR09" H 4600 4250 50  0001 C CNN
F 1 "+5V" H 4600 4540 50  0000 C CNN
F 2 "" H 4600 4400 50  0000 C CNN
F 3 "" H 4600 4400 50  0000 C CNN
	1    4600 4400
	1    0    0    -1  
$EndComp
Text Label 6650 3800 2    60   ~ 0
IN
$Comp
L CONN_01X03 P1
U 1 1 5953B569
P 4950 4500
F 0 "P1" H 4950 4700 50  0000 C CNN
F 1 "CONN_01X03" V 5050 4500 50  0000 C CNN
F 2 "Pin_Headers:Pin_Header_Angled_1x03" H 4950 4500 50  0001 C CNN
F 3 "" H 4950 4500 50  0000 C CNN
	1    4950 4500
	1    0    0    -1  
$EndComp
$Comp
L CONN_01X03 P2
U 1 1 5953B5CA
P 6300 4500
F 0 "P2" H 6300 4700 50  0000 C CNN
F 1 "CONN_01X03" V 6400 4500 50  0000 C CNN
F 2 "Pin_Headers:Pin_Header_Angled_1x03" H 6300 4500 50  0001 C CNN
F 3 "" H 6300 4500 50  0000 C CNN
	1    6300 4500
	-1   0    0    -1  
$EndComp
Wire Wire Line
	4750 4400 4600 4400
Wire Wire Line
	4750 4500 4600 4500
Wire Wire Line
	4750 4600 4600 4600
Wire Wire Line
	6500 4400 6700 4400
Wire Wire Line
	6500 4500 6700 4500
Wire Wire Line
	6500 4600 6700 4600
Text Label 4600 4500 0    60   ~ 0
IN
Text Label 6700 4400 0    60   ~ 0
COMM
Text Label 6700 4500 0    60   ~ 0
+OUT
Text Label 6700 4600 0    60   ~ 0
-OUT
$EndSCHEMATC
